…
# Combined thresholds

``` r
# Join 1:1 and group coaching counts
combined_pre_16 <- full_join(unique_pre_16_11s, pre_16_group, by = "upn")
combined_pre_16
```

```
## # A tibble: 579 × 5
##    upn   pre_16_total_11s proportion_11s pre_16_total_group proportion_group
##    <chr>            <int>          <dbl>              <int>            <dbl>
##  1 14896               15           62.5                 NA             NA  
##  2 14897               15           62.5                  3             37.5
##  3 14917               11           45.8                  1             12.5
##  4 14949               17           70.8                  2             25  
##  5 15124               13           54.2                 NA             NA  
##  6 15133               11           45.8                 NA             NA  
##  7 15136                8           33.3                 NA             NA  
##  8 15173               17           70.8                 NA             NA  
##  9 15201               19           79.2                  1             12.5
## 10 15304               17           70.8                  1             12.5
## # ℹ 569 more rows
```
…
``` r
# Calculate combined threshold
combined_count <- combined_pre_16$pre_16_total_group + combined_pre_16$pre_16_total_11s

combined_pre_16 <- combined_pre_16 %>%
  mutate(combined_proportion = combined_count / 28 * 100)

combined_pre_16
```

```
## # A tibble: 579 × 6
##    upn   pre_16_total_11s proportion_11s pre_16_total_group proportion_group combined_proportion
##    <chr>            <int>          <dbl>              <int>            <dbl>               <dbl>
##  1 14896               15           62.5                 NA             NA                  NA  
##  2 14897               15           62.5                  3             37.5                64.3
##  3 14917               11           45.8                  1             12.5                42.9
##  4 14949               17           70.8                  2             25                  67.9
##  5 15124               13           54.2                 NA             NA                  NA  
##  6 15133               11           45.8                 NA             NA                  NA  
##  7 15136                8           33.3                 NA             NA                  NA  
##  8 15173               17           70.8                 NA             NA                  NA  
##  9 15201               19           79.2                  1             12.5                71.4
## 10 15304               17           70.8                  1             12.5                64.3
## # ℹ 569 more rows
```


``` r
# Create df with proportions only
pre_16_all <- combined_pre_16 %>%
  select(upn, proportion_11s, proportion_group, combined_proportion)
pre_16_all
```

```
## # A tibble: 579 × 4
##    upn   proportion_11s proportion_group combined_proportion
##    <chr>          <dbl>            <dbl>               <dbl>
##  1 14896           62.5             NA                  NA  
##  2 14897           62.5             37.5                64.3
##  3 14917           45.8             12.5                42.9
##  4 14949           70.8             25                  67.9
##  5 15124           54.2             NA                  NA  
##  6 15133           45.8             NA                  NA  
##  7 15136           33.3             NA                  NA  
##  8 15173           70.8             NA                  NA  
##  9 15201           79.2             12.5                71.4
## 10 15304           70.8             12.5                64.3
## # ℹ 569 more rows
```
…
pre_16s_all_proportions_thresholds
```

```
## # A tibble: 579 × 7
##    upn   proportion_11s proportion_group combined_proportion category_11s category_group category_combined
##    <chr>          <dbl>            <dbl>               <dbl> <fct>        <fct>          <fct>            
##  1 14896           62.5             NA                  NA   3            <NA>           <NA>             
##  2 14897           62.5             37.5                64.3 3            5              3                
##  3 14917           45.8             12.5                42.9 4            6              4                
##  4 14949           70.8             25                  67.9 3            5              3                
##  5 15124           54.2             NA                  NA   4            <NA>           <NA>             
##  6 15133           45.8             NA                  NA   4            <NA>           <NA>             
##  7 15136           33.3             NA                  NA   5            <NA>           <NA>             
##  8 15173           70.8             NA                  NA   3            <NA>           <NA>             
##  9 15201           79.2             12.5                71.4 3            6              3                
## 10 15304           70.8             12.5                64.3 3            6              3                
## # ℹ 569 more rows
```
…
```
## [1] 579
```

``` r
pre_16s_all_status
```

```
## # A tibble: 4,703 × 10
##    upn   proportion_11s proportion_group combined_proportion category_11s category_group category_combined class followup_period status 
##    <chr>          <dbl>            <dbl>               <dbl> <fct>        <fct>          <fct>             <chr> <fct>           <fct>  
##  1 14896           62.5             NA                  NA   3            <NA>           <NA>              2023  Y12-Q1          EET    
##  2 14896           62.5             NA                  NA   3            <NA>           <NA>              2023  Y12-Q2          Unknown
##  3 14896           62.5             NA                  NA   3            <NA>           <NA>              2023  Y12-Q3          Unknown
##  4 14896           62.5             NA                  NA   3            <NA>           <NA>              2023  Y12-Q4          Unknown
##  5 14896           62.5             NA                  NA   3            <NA>           <NA>              2023  Y13-Q1          EET    
##  6 14896           62.5             NA                  NA   3            <NA>           <NA>              2023  Y13-Q2          NEET   
##  7 14896           62.5             NA                  NA   3            <NA>           <NA>              2023  Y13-Q3          EET    
##  8 14896           62.5             NA                  NA   3            <NA>           <NA>              2023  Y13-Q4          Unknown
##  9 14897           62.5             37.5                64.3 3            5              3                 2023  Y12-Q1          EET    
## 10 14897           62.5             37.5                64.3 3            5              3                 2023  Y12-Q2          EET    
## # ℹ 4,693 more rows
```
…
pre_16s_excl_na$category_group <- factor(pre_16s_excl_na$category_group,
  levels = 1:6,
  labels = c(">100%", "80% - 100%", "60% - 79%", "40% - 59%", "20% - 39%", "<20%")
)

pre_16s_excl_na$category_combined <- factor(pre_16s_excl_na$category_combined,
  levels = 1:6,
  labels = c(">100%", "80% - 100%", "60% - 79%", "40% - 59%", "20% - 39%", "<20%")
)
pre_16s_excl_na
```

```
## # A tibble: 1,464 × 10
##    upn   proportion_11s proportion_group combined_proportion category_11s category_group category_combined class followup_period status 
##    <chr>          <dbl>            <dbl>               <dbl> <fct>        <fct>          <fct>             <chr> <fct>           <fct>  
##  1 14897           62.5             37.5                64.3 60% - 79%    20% - 39%      60% - 79%         2023  Y12-Q1          EET    
##  2 14897           62.5             37.5                64.3 60% - 79%    20% - 39%      60% - 79%         2023  Y13-Q1          EET    
##  3 14897           62.5             37.5                64.3 60% - 79%    20% - 39%      60% - 79%         2023  Y13-Q4          Unknown
##  4 14917           45.8             12.5                42.9 40% - 59%    <20%           40% - 59%         2023  Y12-Q1          EET    
##  5 14917           45.8             12.5                42.9 40% - 59%    <20%           40% - 59%         2023  Y13-Q1          Unknown
##  6 14917           45.8             12.5                42.9 40% - 59%    <20%           40% - 59%         2023  Y13-Q4          Unknown
##  7 14949           70.8             25                  67.9 60% - 79%    20% - 39%      60% - 79%         2024  Y12-Q1          EET    
##  8 15201           79.2             12.5                71.4 60% - 79%    <20%           60% - 79%         2024  Y12-Q1          EET    
##  9 15304           70.8             12.5                64.3 60% - 79%    <20%           60% - 79%         2024  Y12-Q1          EET    
## 10 15313           70.8             12.5                64.3 60% - 79%    <20%           60% - 79%         2024  Y12-Q1          EET    
## # ℹ 1,454 more rows
```
…
